<?xml version="1.0" encoding="UTF-8" standalone="no"?>
<!DOCTYPE svg PUBLIC "-//W3C//DTD SVG 1.1//EN"
 "http://www.w3.org/Graphics/SVG/1.1/DTD/svg11.dtd">
<!-- Generated by graphviz version 2.26.3 (20100126.1600)
 -->
<!-- Title: Anonymous Pages: 1 -->
<svg width="119pt" height="200pt"
 viewBox="0.00 0.00 119.00 200.00" xmlns="http://www.w3.org/2000/svg" xmlns:xlink="http://www.w3.org/1999/xlink">
<g id="graph1" class="graph" transform="scale(1 1) rotate(0) translate(4 196)">
<title>Anonymous</title>
<polygon fill="white" stroke="white" points="-4,5 -4,-196 116,-196 116,5 -4,5"/>
<!-- u_2 -->
<g id="node1" class="node"><title>u_2</title>
<polygon fill="none" stroke="black" points="9,-153 9,-191 111,-191 111,-153 9,-153"/>
<text text-anchor="middle" x="33" y="-178.9" font-family="Courier,monospace" font-size="9.00">SinOsc</text>
<polyline fill="none" stroke="black" points="57,-172 57,-191 "/>
<text text-anchor="middle" x="73" y="-178.9" font-family="Courier,monospace" font-size="9.00">440</text>
<polyline fill="none" stroke="black" points="89,-172 89,-191 "/>
<text text-anchor="middle" x="100" y="-178.9" font-family="Courier,monospace" font-size="9.00">0</text>
<polyline fill="none" stroke="black" points="9,-172 111,-172 "/>
<text text-anchor="middle" x="60" y="-159.9" font-family="Courier,monospace" font-size="9.00"> </text>
</g>
<!-- u_4 -->
<g id="node2" class="node"><title>u_4</title>
<polygon fill="none" stroke="black" points="27,-77 27,-115 103,-115 103,-77 27,-77"/>
<text text-anchor="middle" x="38" y="-102.9" font-family="Courier,monospace" font-size="9.00">*</text>
<polyline fill="none" stroke="black" points="49,-96 49,-115 "/>
<text text-anchor="middle" x="60" y="-102.9" font-family="Courier,monospace" font-size="9.00"> </text>
<polyline fill="none" stroke="black" points="71,-96 71,-115 "/>
<text text-anchor="middle" x="87" y="-102.9" font-family="Courier,monospace" font-size="9.00">0.1</text>
<polyline fill="none" stroke="black" points="27,-96 103,-96 "/>
<text text-anchor="middle" x="65" y="-83.9" font-family="Courier,monospace" font-size="9.00"> </text>
</g>
<!-- u_2&#45;&gt;u_4 -->
<g id="edge2" class="edge"><title>u_2:o_0&#45;&gt;u_4:i_0</title>
<path fill="none" stroke="black" d="M60,-153C60,-153 60,-126.94 60,-117.982"/>
<polygon fill="black" stroke="black" points="59,-115 61,-115 61.0001,-117 59.0001,-117 59,-115"/>
<polyline fill="none" stroke="black" points="60.0001,-117 60.0001,-117.5 "/>
</g>
<!-- u_5 -->
<g id="node3" class="node"><title>u_5</title>
<polygon fill="none" stroke="black" points="0,-1 0,-39 76,-39 76,-1 0,-1"/>
<text text-anchor="middle" x="16" y="-26.9" font-family="Courier,monospace" font-size="9.00">Out</text>
<polyline fill="none" stroke="black" points="32,-20 32,-39 "/>
<text text-anchor="middle" x="43" y="-26.9" font-family="Courier,monospace" font-size="9.00">0</text>
<polyline fill="none" stroke="black" points="54,-20 54,-39 "/>
<text text-anchor="middle" x="65" y="-26.9" font-family="Courier,monospace" font-size="9.00"> </text>
<polyline fill="none" stroke="black" points="0,-20 76,-20 "/>
<text text-anchor="middle" x="38" y="-7.9" font-family="Courier,monospace" font-size="9.00"> </text>
</g>
<!-- u_4&#45;&gt;u_5 -->
<g id="edge4" class="edge"><title>u_4:o_0&#45;&gt;u_5:i_1</title>
<path fill="none" stroke="black" d="M65,-77C65,-77 65,-50.9399 65,-41.9818"/>
<polygon fill="black" stroke="black" points="64,-39 66,-39 66.0001,-41 64.0001,-41 64,-39"/>
<polyline fill="none" stroke="black" points="65.0001,-41 65.0001,-41.5 "/>
</g>
</g>
</svg>
