<?xml version="1.0" encoding="UTF-8" standalone="no"?>
<!DOCTYPE svg PUBLIC "-//W3C//DTD SVG 1.1//EN"
 "http://www.w3.org/Graphics/SVG/1.1/DTD/svg11.dtd">
<!-- Generated by graphviz version 2.26.3 (20100126.1600)
 -->
<!-- Title: Anonymous Pages: 1 -->
<svg width="254pt" height="476pt"
 viewBox="0.00 0.00 254.00 476.00" xmlns="http://www.w3.org/2000/svg" xmlns:xlink="http://www.w3.org/1999/xlink">
<g id="graph1" class="graph" transform="scale(1 1) rotate(0) translate(4 472)">
<title>Anonymous</title>
<polygon fill="white" stroke="white" points="-4,5 -4,-472 251,-472 251,5 -4,5"/>
<!-- u_2 -->
<g id="node1" class="node"><title>u_2</title>
<polygon fill="none" stroke="blue" points="10,-374 10,-390 44,-390 44,-374 10,-374"/>
<text text-anchor="start" x="13.5" y="-379.9" font-family="Courier,monospace" font-size="9.00">LFSaw</text>
<polygon fill="none" stroke="blue" points="46,-374 46,-390 58,-390 58,-374 46,-374"/>
<text text-anchor="start" x="49" y="-379.9" font-family="Courier,monospace" font-size="9.00">1</text>
<polygon fill="none" stroke="blue" points="60,-374 60,-390 72,-390 72,-374 60,-374"/>
<text text-anchor="start" x="63" y="-379.9" font-family="Courier,monospace" font-size="9.00">0</text>
<polygon fill="none" stroke="blue" points="60,-366 60,-372 72,-372 72,-366 60,-366"/>
</g>
<!-- u_8 -->
<g id="node4" class="node"><title>u_8</title>
<polygon fill="none" stroke="blue" points="91,-302 91,-318 104,-318 104,-302 91,-302"/>
<text text-anchor="start" x="94.5" y="-307.9" font-family="Courier,monospace" font-size="9.00">*</text>
<polygon fill="none" stroke="blue" points="106,-302 106,-318 112,-318 112,-302 106,-302"/>
<polygon fill="none" stroke="blue" points="114,-302 114,-318 120,-318 120,-302 114,-302"/>
<polygon fill="none" stroke="blue" points="114,-294 114,-300 120,-300 120,-294 114,-294"/>
</g>
<!-- u_2&#45;&gt;u_8 -->
<g id="edge4" class="edge"><title>u_2:o_0&#45;&gt;u_8:i_0</title>
<path fill="none" stroke="black" d="M73,-369C73,-369 100.562,-329.953 107.453,-320.191"/>
<polygon fill="black" stroke="black" points="108.183,-317.423 109.817,-318.577 108.664,-320.211 107.03,-319.057 108.183,-317.423"/>
<polyline fill="none" stroke="black" points="107.847,-319.634 107.558,-320.042 "/>
</g>
<!-- u_5 -->
<g id="node2" class="node"><title>u_5</title>
<polygon fill="none" stroke="yellow" points="78,-446 78,-462 107,-462 107,-446 78,-446"/>
<text text-anchor="start" x="81.5" y="-451.9" font-family="Courier,monospace" font-size="9.00">Rand</text>
<polygon fill="none" stroke="yellow" points="109,-446 109,-462 131,-462 131,-446 109,-446"/>
<text text-anchor="start" x="112" y="-451.9" font-family="Courier,monospace" font-size="9.00">200</text>
<polygon fill="none" stroke="yellow" points="133,-446 133,-462 155,-462 155,-446 133,-446"/>
<text text-anchor="start" x="136" y="-451.9" font-family="Courier,monospace" font-size="9.00">400</text>
<polygon fill="none" stroke="yellow" points="133,-438 133,-444 155,-444 155,-438 133,-438"/>
</g>
<!-- u_7 -->
<g id="node3" class="node"><title>u_7</title>
<polygon fill="none" stroke="yellow" points="110,-374 110,-390 139,-390 139,-374 110,-374"/>
<text text-anchor="start" x="113.5" y="-379.9" font-family="Courier,monospace" font-size="9.00">Rand</text>
<polygon fill="none" stroke="yellow" points="141,-374 141,-390 147,-390 147,-374 141,-374"/>
<polygon fill="none" stroke="yellow" points="149,-374 149,-390 171,-390 171,-374 149,-374"/>
<text text-anchor="start" x="152" y="-379.9" font-family="Courier,monospace" font-size="9.00">600</text>
<polygon fill="none" stroke="yellow" points="149,-366 149,-372 171,-372 171,-366 149,-366"/>
</g>
<!-- u_5&#45;&gt;u_7 -->
<g id="edge2" class="edge"><title>u_5:o_0&#45;&gt;u_7:i_0</title>
<path fill="none" stroke="black" d="M144,-438C144,-438 144,-402.551 144,-392.581"/>
<polygon fill="black" stroke="black" points="143,-390 145,-390 145,-392 143,-392 143,-390"/>
<polyline fill="none" stroke="black" points="144,-392 144,-392.5 "/>
</g>
<!-- u_7&#45;&gt;u_8 -->
<g id="edge6" class="edge"><title>u_7:o_0&#45;&gt;u_8:i_1</title>
<path fill="none" stroke="black" d="M160,-366C160,-366 127.078,-329.25 118.848,-320.062"/>
<polygon fill="black" stroke="black" points="116.255,-318.667 117.745,-317.333 119.079,-318.822 117.59,-320.157 116.255,-318.667"/>
<polyline fill="none" stroke="black" points="118.335,-319.49 118.668,-319.862 "/>
</g>
<!-- u_12 -->
<g id="node6" class="node"><title>u_12</title>
<polygon fill="none" stroke="blue" points="149,-230 149,-246 162,-246 162,-230 149,-230"/>
<text text-anchor="start" x="152.5" y="-235.9" font-family="Courier,monospace" font-size="9.00">+</text>
<polygon fill="none" stroke="blue" points="164,-230 164,-246 170,-246 170,-230 164,-230"/>
<polygon fill="none" stroke="blue" points="172,-230 172,-246 178,-246 178,-230 172,-230"/>
<polygon fill="none" stroke="blue" points="172,-222 172,-228 178,-228 178,-222 172,-222"/>
</g>
<!-- u_8&#45;&gt;u_12 -->
<g id="edge8" class="edge"><title>u_8:o_0&#45;&gt;u_12:i_0</title>
<path fill="none" stroke="black" d="M117,-294C117,-294 155.281,-257.25 164.852,-248.062"/>
<polygon fill="black" stroke="black" points="166.307,-245.279 167.693,-246.721 166.25,-248.106 164.865,-246.664 166.307,-245.279"/>
<polyline fill="none" stroke="black" points="165.557,-247.385 165.197,-247.731 "/>
</g>
<!-- u_11 -->
<g id="node5" class="node"><title>u_11</title>
<polygon fill="none" stroke="yellow" points="160,-302 160,-318 189,-318 189,-302 160,-302"/>
<text text-anchor="start" x="163.5" y="-307.9" font-family="Courier,monospace" font-size="9.00">Rand</text>
<polygon fill="none" stroke="yellow" points="191,-302 191,-318 213,-318 213,-302 191,-302"/>
<text text-anchor="start" x="194" y="-307.9" font-family="Courier,monospace" font-size="9.00">500</text>
<polygon fill="none" stroke="yellow" points="215,-302 215,-318 237,-318 237,-302 215,-302"/>
<text text-anchor="start" x="218" y="-307.9" font-family="Courier,monospace" font-size="9.00">900</text>
<polygon fill="none" stroke="yellow" points="215,-294 215,-300 237,-300 237,-294 215,-294"/>
</g>
<!-- u_11&#45;&gt;u_12 -->
<g id="edge10" class="edge"><title>u_11:o_0&#45;&gt;u_12:i_1</title>
<path fill="none" stroke="black" d="M226,-294C226,-294 186.953,-257.25 177.191,-248.062"/>
<polygon fill="black" stroke="black" points="174.315,-246.728 175.685,-245.272 177.142,-246.643 175.771,-248.099 174.315,-246.728"/>
<polyline fill="none" stroke="black" points="176.456,-247.371 176.821,-247.713 "/>
</g>
<!-- u_13 -->
<g id="node7" class="node"><title>u_13</title>
<polygon fill="none" stroke="black" points="131,-158 131,-174 170,-174 170,-158 131,-158"/>
<text text-anchor="start" x="134.5" y="-163.9" font-family="Courier,monospace" font-size="9.00">SinOsc</text>
<polygon fill="none" stroke="black" points="172,-158 172,-174 178,-174 178,-158 172,-158"/>
<polygon fill="none" stroke="black" points="180,-158 180,-174 192,-174 192,-158 180,-158"/>
<text text-anchor="start" x="183" y="-163.9" font-family="Courier,monospace" font-size="9.00">0</text>
<polygon fill="none" stroke="black" points="180,-150 180,-156 192,-156 192,-150 180,-150"/>
</g>
<!-- u_12&#45;&gt;u_13 -->
<g id="edge12" class="edge"><title>u_12:o_0&#45;&gt;u_13:i_0</title>
<path fill="none" stroke="black" d="M175,-222C175,-222 175,-186.551 175,-176.581"/>
<polygon fill="black" stroke="black" points="174,-174 176,-174 176,-176 174,-176 174,-174"/>
<polyline fill="none" stroke="black" points="175,-176 175,-176.5 "/>
</g>
<!-- u_15 -->
<g id="node8" class="node"><title>u_15</title>
<polygon fill="none" stroke="black" points="168,-86 168,-102 181,-102 181,-86 168,-86"/>
<text text-anchor="start" x="171.5" y="-91.9" font-family="Courier,monospace" font-size="9.00">*</text>
<polygon fill="none" stroke="black" points="183,-86 183,-102 189,-102 189,-86 183,-86"/>
<polygon fill="none" stroke="black" points="191,-86 191,-102 213,-102 213,-86 191,-86"/>
<text text-anchor="start" x="194" y="-91.9" font-family="Courier,monospace" font-size="9.00">0.1</text>
<polygon fill="none" stroke="black" points="191,-78 191,-84 213,-84 213,-78 191,-78"/>
</g>
<!-- u_13&#45;&gt;u_15 -->
<g id="edge14" class="edge"><title>u_13:o_0&#45;&gt;u_15:i_0</title>
<path fill="none" stroke="black" d="M186,-150C186,-150 186,-114.551 186,-104.581"/>
<polygon fill="black" stroke="black" points="185,-102 187,-102 187,-104 185,-104 185,-102"/>
<polyline fill="none" stroke="black" points="186,-104 186,-104.5 "/>
</g>
<!-- u_16 -->
<g id="node9" class="node"><title>u_16</title>
<polygon fill="none" stroke="black" points="160,-10 160,-26 183,-26 183,-10 160,-10"/>
<text text-anchor="start" x="163.5" y="-15.9" font-family="Courier,monospace" font-size="9.00">Out</text>
<polygon fill="none" stroke="black" points="185,-10 185,-26 197,-26 197,-10 185,-10"/>
<text text-anchor="start" x="188" y="-15.9" font-family="Courier,monospace" font-size="9.00">0</text>
<polygon fill="none" stroke="black" points="199,-10 199,-26 205,-26 205,-10 199,-10"/>
</g>
<!-- u_15&#45;&gt;u_16 -->
<g id="edge16" class="edge"><title>u_15:o_0&#45;&gt;u_16:i_1</title>
<path fill="none" stroke="black" d="M202,-78C202,-78 202,-38.8953 202,-28.5081"/>
<polygon fill="black" stroke="black" points="201,-26 203,-26 203,-28 201,-28 201,-26"/>
<polyline fill="none" stroke="black" points="202,-28 202,-28.5 "/>
</g>
</g>
</svg>
