<?xml version="1.0" encoding="UTF-8" standalone="no"?>
<!DOCTYPE svg PUBLIC "-//W3C//DTD SVG 1.1//EN"
 "http://www.w3.org/Graphics/SVG/1.1/DTD/svg11.dtd">
<!-- Generated by graphviz version 2.26.3 (20100126.1600)
 -->
<!-- Title: Anonymous Pages: 1 -->
<svg width="72pt" height="118pt"
 viewBox="0.00 0.00 72.00 117.70" xmlns="http://www.w3.org/2000/svg" xmlns:xlink="http://www.w3.org/1999/xlink">
<g id="graph1" class="graph" transform="scale(0.626087 0.626087) rotate(0) translate(4 184)">
<title>Anonymous</title>
<polygon fill="white" stroke="white" points="-4,5 -4,-184 112,-184 112,5 -4,5"/>
<!-- u_2 -->
<g id="node1" class="node"><title>u_2</title>
<polygon fill="none" stroke="black" points="10,-158 10,-174 49,-174 49,-158 10,-158"/>
<text text-anchor="start" x="13.5" y="-163.9" font-family="Courier,monospace" font-size="9.00">SinOsc</text>
<polygon fill="none" stroke="black" points="51,-158 51,-174 73,-174 73,-158 51,-158"/>
<text text-anchor="start" x="54" y="-163.9" font-family="Courier,monospace" font-size="9.00">440</text>
<polygon fill="none" stroke="black" points="75,-158 75,-174 87,-174 87,-158 75,-158"/>
<text text-anchor="start" x="78" y="-163.9" font-family="Courier,monospace" font-size="9.00">0</text>
<polygon fill="none" stroke="black" points="75,-150 75,-156 87,-156 87,-150 75,-150"/>
</g>
<!-- u_3 -->
<g id="node2" class="node"><title>u_3</title>
<polygon fill="none" stroke="black" points="63,-86 63,-102 76,-102 76,-86 63,-86"/>
<text text-anchor="start" x="66.5" y="-91.9" font-family="Courier,monospace" font-size="9.00">&gt;</text>
<polygon fill="none" stroke="black" points="78,-86 78,-102 84,-102 84,-86 78,-86"/>
<polygon fill="none" stroke="black" points="86,-86 86,-102 98,-102 98,-86 86,-86"/>
<text text-anchor="start" x="89" y="-91.9" font-family="Courier,monospace" font-size="9.00">0</text>
<polygon fill="none" stroke="black" points="86,-78 86,-84 98,-84 98,-78 86,-78"/>
</g>
<!-- u_2&#45;&gt;u_3 -->
<g id="edge2" class="edge"><title>u_2:o_0:s&#45;&gt;u_3:i_0</title>
<path fill="none" stroke="black" d="M81,-150C81,-150 81,-114.551 81,-104.581"/>
<polygon fill="black" stroke="black" points="80,-102 82,-102 82.0001,-104 80.0001,-104 80,-102"/>
<polyline fill="none" stroke="black" points="81.0001,-104 81.0001,-104.5 "/>
</g>
<!-- u_4 -->
<g id="node3" class="node"><title>u_4</title>
<polygon fill="none" stroke="black" points="50,-10 50,-26 73,-26 73,-10 50,-10"/>
<text text-anchor="start" x="53.5" y="-15.9" font-family="Courier,monospace" font-size="9.00">Out</text>
<polygon fill="none" stroke="black" points="75,-10 75,-26 87,-26 87,-10 75,-10"/>
<text text-anchor="start" x="78" y="-15.9" font-family="Courier,monospace" font-size="9.00">0</text>
<polygon fill="none" stroke="black" points="89,-10 89,-26 95,-26 95,-10 89,-10"/>
</g>
<!-- u_3&#45;&gt;u_4 -->
<g id="edge4" class="edge"><title>u_3:o_0:s&#45;&gt;u_4:i_1</title>
<path fill="none" stroke="black" d="M92,-78C92,-78 92,-38.8953 92,-28.5081"/>
<polygon fill="black" stroke="black" points="91,-26 93,-26 93.0001,-28 91.0001,-28 91,-26"/>
<polyline fill="none" stroke="black" points="92.0001,-28 92.0001,-28.5 "/>
</g>
</g>
</svg>
