<?xml version="1.0" encoding="UTF-8" standalone="no"?>
<!DOCTYPE svg PUBLIC "-//W3C//DTD SVG 1.1//EN"
 "http://www.w3.org/Graphics/SVG/1.1/DTD/svg11.dtd">
<!-- Generated by graphviz version 2.43.0 (0)
 -->
<!-- Title: Anonymous Pages: 1 -->
<svg width="454pt" height="282pt"
 viewBox="0.00 0.00 454.00 282.00" xmlns="http://www.w3.org/2000/svg" xmlns:xlink="http://www.w3.org/1999/xlink">
<g id="graph0" class="graph" transform="scale(1 1) rotate(0) translate(4 278)">
<title>Anonymous</title>
<polygon fill="white" stroke="transparent" points="-4,4 -4,-278 450,-278 450,4 -4,4"/>
<!-- u_3 -->
<g id="node1" class="node">
<title>u_3</title>
<polygon fill="none" stroke="blue" points="0,-73.5 0,-127.5 70,-127.5 70,-73.5 0,-73.5"/>
<text text-anchor="middle" x="24" y="-116.3" font-family="Courier,monospace" font-size="9.00">SinOsc</text>
<polyline fill="none" stroke="blue" points="0,-109.5 48,-109.5 "/>
<text text-anchor="middle" x="24" y="-98.3" font-family="Courier,monospace" font-size="9.00">0.25</text>
<polyline fill="none" stroke="blue" points="0,-91.5 48,-91.5 "/>
<text text-anchor="middle" x="24" y="-80.3" font-family="Courier,monospace" font-size="9.00">0</text>
<polyline fill="none" stroke="blue" points="48,-73.5 48,-127.5 "/>
<text text-anchor="middle" x="59" y="-98.3" font-family="Courier,monospace" font-size="9.00"> </text>
</g>
<!-- u_5 -->
<g id="node2" class="node">
<title>u_5</title>
<polygon fill="none" stroke="blue" points="106,-73.5 106,-127.5 160,-127.5 160,-73.5 106,-73.5"/>
<text text-anchor="middle" x="120.5" y="-116.3" font-family="Courier,monospace" font-size="9.00">*</text>
<polyline fill="none" stroke="blue" points="106,-109.5 135,-109.5 "/>
<text text-anchor="middle" x="120.5" y="-98.3" font-family="Courier,monospace" font-size="9.00"> </text>
<polyline fill="none" stroke="blue" points="106,-91.5 135,-91.5 "/>
<text text-anchor="middle" x="120.5" y="-80.3" font-family="Courier,monospace" font-size="9.00">10</text>
<polyline fill="none" stroke="blue" points="135,-73.5 135,-127.5 "/>
<text text-anchor="middle" x="147.5" y="-98.3" font-family="Courier,monospace" font-size="9.00"> </text>
</g>
<!-- u_3&#45;&gt;u_5 -->
<g id="edge1" class="edge">
<title>u_3:o_0&#45;&gt;u_5:i_0</title>
<path fill="none" stroke="blue" d="M70,-100.5C70,-100.5 94.69,-100.5 103.18,-100.5"/>
<polygon fill="blue" stroke="blue" points="106,-99.5 106,-101.5 104,-101.5 104,-99.5 106,-99.5"/>
<polyline fill="none" stroke="blue" points="104,-100.5 103.5,-100.5 "/>
</g>
<!-- u_10 -->
<g id="node5" class="node">
<title>u_10</title>
<polygon fill="none" stroke="blue" points="204,-36.5 204,-108.5 258,-108.5 258,-36.5 204,-36.5"/>
<text text-anchor="middle" x="220" y="-97.3" font-family="Courier,monospace" font-size="9.00">Out</text>
<polyline fill="none" stroke="blue" points="204,-90.5 236,-90.5 "/>
<text text-anchor="middle" x="220" y="-79.3" font-family="Courier,monospace" font-size="9.00">1</text>
<polyline fill="none" stroke="blue" points="204,-72.5 236,-72.5 "/>
<text text-anchor="middle" x="220" y="-61.3" font-family="Courier,monospace" font-size="9.00"> </text>
<polyline fill="none" stroke="blue" points="204,-54.5 236,-54.5 "/>
<text text-anchor="middle" x="220" y="-43.3" font-family="Courier,monospace" font-size="9.00"> </text>
<polyline fill="none" stroke="blue" points="236,-36.5 236,-108.5 "/>
<text text-anchor="middle" x="247" y="-70.3" font-family="Courier,monospace" font-size="9.00"> </text>
</g>
<!-- u_5&#45;&gt;u_10 -->
<g id="edge3" class="edge">
<title>u_5:o_0&#45;&gt;u_10:i_1</title>
<path fill="none" stroke="blue" d="M160,-100.5C160,-100.5 192.34,-72.68 200.93,-65.28"/>
<polygon fill="blue" stroke="blue" points="202.35,-62.74 203.65,-64.26 202.14,-65.56 200.83,-64.05 202.35,-62.74"/>
<polyline fill="none" stroke="blue" points="201.48,-64.8 201.1,-65.13 "/>
</g>
<!-- u_7 -->
<g id="node3" class="node">
<title>u_7</title>
<polygon fill="none" stroke="blue" points="0,-0.5 0,-54.5 70,-54.5 70,-0.5 0,-0.5"/>
<text text-anchor="middle" x="24" y="-43.3" font-family="Courier,monospace" font-size="9.00">SinOsc</text>
<polyline fill="none" stroke="blue" points="0,-36.5 48,-36.5 "/>
<text text-anchor="middle" x="24" y="-25.3" font-family="Courier,monospace" font-size="9.00">0.35</text>
<polyline fill="none" stroke="blue" points="0,-18.5 48,-18.5 "/>
<text text-anchor="middle" x="24" y="-7.3" font-family="Courier,monospace" font-size="9.00">0</text>
<polyline fill="none" stroke="blue" points="48,-0.5 48,-54.5 "/>
<text text-anchor="middle" x="59" y="-25.3" font-family="Courier,monospace" font-size="9.00"> </text>
</g>
<!-- u_9 -->
<g id="node4" class="node">
<title>u_9</title>
<polygon fill="none" stroke="blue" points="106,-0.5 106,-54.5 160,-54.5 160,-0.5 106,-0.5"/>
<text text-anchor="middle" x="120.5" y="-43.3" font-family="Courier,monospace" font-size="9.00">*</text>
<polyline fill="none" stroke="blue" points="106,-36.5 135,-36.5 "/>
<text text-anchor="middle" x="120.5" y="-25.3" font-family="Courier,monospace" font-size="9.00"> </text>
<polyline fill="none" stroke="blue" points="106,-18.5 135,-18.5 "/>
<text text-anchor="middle" x="120.5" y="-7.3" font-family="Courier,monospace" font-size="9.00">15</text>
<polyline fill="none" stroke="blue" points="135,-0.5 135,-54.5 "/>
<text text-anchor="middle" x="147.5" y="-25.3" font-family="Courier,monospace" font-size="9.00"> </text>
</g>
<!-- u_7&#45;&gt;u_9 -->
<g id="edge2" class="edge">
<title>u_7:o_0&#45;&gt;u_9:i_0</title>
<path fill="none" stroke="blue" d="M70,-27.5C70,-27.5 94.69,-27.5 103.18,-27.5"/>
<polygon fill="blue" stroke="blue" points="106,-26.5 106,-28.5 104,-28.5 104,-26.5 106,-26.5"/>
<polyline fill="none" stroke="blue" points="104,-27.5 103.5,-27.5 "/>
</g>
<!-- u_9&#45;&gt;u_10 -->
<g id="edge4" class="edge">
<title>u_9:o_0&#45;&gt;u_10:i_2</title>
<path fill="none" stroke="blue" d="M160,-27.5C160,-27.5 191.76,-40.79 200.69,-44.53"/>
<polygon fill="blue" stroke="blue" points="203.39,-44.58 202.61,-46.42 200.77,-45.65 201.54,-43.81 203.39,-44.58"/>
<polyline fill="none" stroke="blue" points="201.16,-44.73 200.69,-44.53 "/>
</g>
<!-- u_12 -->
<g id="node6" class="node">
<title>u_12</title>
<polygon fill="none" stroke="blue" points="8,-173.5 8,-209.5 62,-209.5 62,-173.5 8,-173.5"/>
<text text-anchor="middle" x="22.5" y="-198.3" font-family="Courier,monospace" font-size="9.00">In</text>
<polyline fill="none" stroke="blue" points="8,-191.5 37,-191.5 "/>
<text text-anchor="middle" x="22.5" y="-180.3" font-family="Courier,monospace" font-size="9.00">0</text>
<polyline fill="none" stroke="blue" points="37,-173.5 37,-209.5 "/>
<text text-anchor="middle" x="49.5" y="-198.3" font-family="Courier,monospace" font-size="9.00"> </text>
<polyline fill="none" stroke="blue" points="37,-191.5 62,-191.5 "/>
<text text-anchor="middle" x="49.5" y="-180.3" font-family="Courier,monospace" font-size="9.00"> </text>
</g>
<!-- u_14 -->
<g id="node7" class="node">
<title>u_14</title>
<polygon fill="none" stroke="blue" points="106,-219.5 106,-273.5 160,-273.5 160,-219.5 106,-219.5"/>
<text text-anchor="middle" x="122" y="-262.3" font-family="Courier,monospace" font-size="9.00">+</text>
<polyline fill="none" stroke="blue" points="106,-255.5 138,-255.5 "/>
<text text-anchor="middle" x="122" y="-244.3" font-family="Courier,monospace" font-size="9.00">440</text>
<polyline fill="none" stroke="blue" points="106,-237.5 138,-237.5 "/>
<text text-anchor="middle" x="122" y="-226.3" font-family="Courier,monospace" font-size="9.00"> </text>
<polyline fill="none" stroke="blue" points="138,-219.5 138,-273.5 "/>
<text text-anchor="middle" x="149" y="-244.3" font-family="Courier,monospace" font-size="9.00"> </text>
</g>
<!-- u_12&#45;&gt;u_14 -->
<g id="edge5" class="edge">
<title>u_12:o_0&#45;&gt;u_14:i_1</title>
<path fill="none" stroke="blue" d="M63,-200.5C63,-200.5 94.76,-221.18 103.69,-226.99"/>
<polygon fill="blue" stroke="blue" points="106.55,-227.66 105.45,-229.34 103.78,-228.25 104.87,-226.57 106.55,-227.66"/>
<polyline fill="none" stroke="blue" points="104.32,-227.41 103.9,-227.14 "/>
</g>
<!-- u_20 -->
<g id="node10" class="node">
<title>u_20</title>
<polygon fill="none" stroke="blue" points="106,-146.5 106,-200.5 160,-200.5 160,-146.5 106,-146.5"/>
<text text-anchor="middle" x="122" y="-189.3" font-family="Courier,monospace" font-size="9.00">+</text>
<polyline fill="none" stroke="blue" points="106,-182.5 138,-182.5 "/>
<text text-anchor="middle" x="122" y="-171.3" font-family="Courier,monospace" font-size="9.00">220</text>
<polyline fill="none" stroke="blue" points="106,-164.5 138,-164.5 "/>
<text text-anchor="middle" x="122" y="-153.3" font-family="Courier,monospace" font-size="9.00"> </text>
<polyline fill="none" stroke="blue" points="138,-146.5 138,-200.5 "/>
<text text-anchor="middle" x="149" y="-171.3" font-family="Courier,monospace" font-size="9.00"> </text>
</g>
<!-- u_12&#45;&gt;u_20 -->
<g id="edge8" class="edge">
<title>u_12:o_1&#45;&gt;u_20:i_1</title>
<path fill="none" stroke="blue" d="M63,-182.5C63,-182.5 94.76,-162.56 103.69,-156.95"/>
<polygon fill="blue" stroke="blue" points="105.47,-154.65 106.53,-156.35 104.84,-157.41 103.77,-155.72 105.47,-154.65"/>
<polyline fill="none" stroke="blue" points="104.31,-156.56 103.88,-156.83 "/>
</g>
<!-- u_15 -->
<g id="node8" class="node">
<title>u_15</title>
<polygon fill="none" stroke="black" points="196,-219.5 196,-273.5 266,-273.5 266,-219.5 196,-219.5"/>
<text text-anchor="middle" x="220" y="-262.3" font-family="Courier,monospace" font-size="9.00">SinOsc</text>
<polyline fill="none" stroke="black" points="196,-255.5 244,-255.5 "/>
<text text-anchor="middle" x="220" y="-244.3" font-family="Courier,monospace" font-size="9.00"> </text>
<polyline fill="none" stroke="black" points="196,-237.5 244,-237.5 "/>
<text text-anchor="middle" x="220" y="-226.3" font-family="Courier,monospace" font-size="9.00">0</text>
<polyline fill="none" stroke="black" points="244,-219.5 244,-273.5 "/>
<text text-anchor="middle" x="255" y="-244.3" font-family="Courier,monospace" font-size="9.00"> </text>
</g>
<!-- u_14&#45;&gt;u_15 -->
<g id="edge6" class="edge">
<title>u_14:o_0&#45;&gt;u_15:i_0</title>
<path fill="none" stroke="blue" d="M160,-246.5C160,-246.5 184.69,-246.5 193.18,-246.5"/>
<polygon fill="blue" stroke="blue" points="196,-245.5 196,-247.5 194,-247.5 194,-245.5 196,-245.5"/>
<polyline fill="none" stroke="blue" points="194,-246.5 193.5,-246.5 "/>
</g>
<!-- u_17 -->
<g id="node9" class="node">
<title>u_17</title>
<polygon fill="none" stroke="black" points="302,-219.5 302,-273.5 356,-273.5 356,-219.5 302,-219.5"/>
<text text-anchor="middle" x="318" y="-262.3" font-family="Courier,monospace" font-size="9.00">*</text>
<polyline fill="none" stroke="black" points="302,-255.5 334,-255.5 "/>
<text text-anchor="middle" x="318" y="-244.3" font-family="Courier,monospace" font-size="9.00"> </text>
<polyline fill="none" stroke="black" points="302,-237.5 334,-237.5 "/>
<text text-anchor="middle" x="318" y="-226.3" font-family="Courier,monospace" font-size="9.00">0.1</text>
<polyline fill="none" stroke="black" points="334,-219.5 334,-273.5 "/>
<text text-anchor="middle" x="345" y="-244.3" font-family="Courier,monospace" font-size="9.00"> </text>
</g>
<!-- u_15&#45;&gt;u_17 -->
<g id="edge7" class="edge">
<title>u_15:o_0&#45;&gt;u_17:i_0</title>
<path fill="none" stroke="black" d="M266,-246.5C266,-246.5 290.69,-246.5 299.18,-246.5"/>
<polygon fill="black" stroke="black" points="302,-245.5 302,-247.5 300,-247.5 300,-245.5 302,-245.5"/>
<polyline fill="none" stroke="black" points="300,-246.5 299.5,-246.5 "/>
</g>
<!-- u_23 -->
<g id="node13" class="node">
<title>u_23</title>
<polygon fill="none" stroke="black" points="392,-191.5 392,-263.5 446,-263.5 446,-191.5 392,-191.5"/>
<text text-anchor="middle" x="408" y="-252.3" font-family="Courier,monospace" font-size="9.00">Out</text>
<polyline fill="none" stroke="black" points="392,-245.5 424,-245.5 "/>
<text text-anchor="middle" x="408" y="-234.3" font-family="Courier,monospace" font-size="9.00">0</text>
<polyline fill="none" stroke="black" points="392,-227.5 424,-227.5 "/>
<text text-anchor="middle" x="408" y="-216.3" font-family="Courier,monospace" font-size="9.00"> </text>
<polyline fill="none" stroke="black" points="392,-209.5 424,-209.5 "/>
<text text-anchor="middle" x="408" y="-198.3" font-family="Courier,monospace" font-size="9.00"> </text>
<polyline fill="none" stroke="black" points="424,-191.5 424,-263.5 "/>
<text text-anchor="middle" x="435" y="-225.3" font-family="Courier,monospace" font-size="9.00"> </text>
</g>
<!-- u_17&#45;&gt;u_23 -->
<g id="edge11" class="edge">
<title>u_17:o_0&#45;&gt;u_23:i_1</title>
<path fill="none" stroke="black" d="M356,-246.5C356,-246.5 381.63,-226.57 389.64,-220.34"/>
<polygon fill="black" stroke="black" points="391.39,-217.71 392.61,-219.29 391.04,-220.52 389.81,-218.94 391.39,-217.71"/>
<polyline fill="none" stroke="black" points="390.42,-219.73 390.03,-220.03 "/>
</g>
<!-- u_21 -->
<g id="node11" class="node">
<title>u_21</title>
<polygon fill="none" stroke="black" points="196,-146.5 196,-200.5 266,-200.5 266,-146.5 196,-146.5"/>
<text text-anchor="middle" x="220" y="-189.3" font-family="Courier,monospace" font-size="9.00">SinOsc</text>
<polyline fill="none" stroke="black" points="196,-182.5 244,-182.5 "/>
<text text-anchor="middle" x="220" y="-171.3" font-family="Courier,monospace" font-size="9.00"> </text>
<polyline fill="none" stroke="black" points="196,-164.5 244,-164.5 "/>
<text text-anchor="middle" x="220" y="-153.3" font-family="Courier,monospace" font-size="9.00">0</text>
<polyline fill="none" stroke="black" points="244,-146.5 244,-200.5 "/>
<text text-anchor="middle" x="255" y="-171.3" font-family="Courier,monospace" font-size="9.00"> </text>
</g>
<!-- u_20&#45;&gt;u_21 -->
<g id="edge9" class="edge">
<title>u_20:o_0&#45;&gt;u_21:i_0</title>
<path fill="none" stroke="blue" d="M160,-173.5C160,-173.5 184.69,-173.5 193.18,-173.5"/>
<polygon fill="blue" stroke="blue" points="196,-172.5 196,-174.5 194,-174.5 194,-172.5 196,-172.5"/>
<polyline fill="none" stroke="blue" points="194,-173.5 193.5,-173.5 "/>
</g>
<!-- u_22 -->
<g id="node12" class="node">
<title>u_22</title>
<polygon fill="none" stroke="black" points="302,-146.5 302,-200.5 356,-200.5 356,-146.5 302,-146.5"/>
<text text-anchor="middle" x="318" y="-189.3" font-family="Courier,monospace" font-size="9.00">*</text>
<polyline fill="none" stroke="black" points="302,-182.5 334,-182.5 "/>
<text text-anchor="middle" x="318" y="-171.3" font-family="Courier,monospace" font-size="9.00"> </text>
<polyline fill="none" stroke="black" points="302,-164.5 334,-164.5 "/>
<text text-anchor="middle" x="318" y="-153.3" font-family="Courier,monospace" font-size="9.00">0.1</text>
<polyline fill="none" stroke="black" points="334,-146.5 334,-200.5 "/>
<text text-anchor="middle" x="345" y="-171.3" font-family="Courier,monospace" font-size="9.00"> </text>
</g>
<!-- u_21&#45;&gt;u_22 -->
<g id="edge10" class="edge">
<title>u_21:o_0&#45;&gt;u_22:i_0</title>
<path fill="none" stroke="black" d="M266,-173.5C266,-173.5 290.69,-173.5 299.18,-173.5"/>
<polygon fill="black" stroke="black" points="302,-172.5 302,-174.5 300,-174.5 300,-172.5 302,-172.5"/>
<polyline fill="none" stroke="black" points="300,-173.5 299.5,-173.5 "/>
</g>
<!-- u_22&#45;&gt;u_23 -->
<g id="edge12" class="edge">
<title>u_22:o_0&#45;&gt;u_23:i_2</title>
<path fill="none" stroke="black" d="M345,-201.5C345,-201.5 379.71,-200.76 389.47,-200.55"/>
<polygon fill="black" stroke="black" points="391.98,-199.5 392.02,-201.5 390.02,-201.54 389.98,-199.54 391.98,-199.5"/>
<polyline fill="none" stroke="black" points="390,-200.54 389.5,-200.55 "/>
</g>
</g>
</svg>
