digraph Anonymous {
graph [splines=false];
node [fontsize=12,fontname="Courier"];
edge [arrowhead=box,arrowsize=0.25];
u_2[shape="plaintext",color="black",label=<<TABLE BORDER="0" CELLBORDER="1"><TR><TD>SinOsc</TD><TD ID="u_2:K_0">440</TD><TD ID="u_2:K_1">0</TD></TR><TR><TD BORDER="0"></TD><TD BORDER="0"></TD><TD PORT="o_0" ID="u_2:o_0"></TD></TR></TABLE>>];
u_4[shape="plaintext",color="black",label=<<TABLE BORDER="0" CELLBORDER="1"><TR><TD>*</TD><TD PORT="i_0" ID="u_4:i_0"></TD><TD ID="u_4:K_1">0.1</TD></TR><TR><TD BORDER="0"></TD><TD BORDER="0"></TD><TD PORT="o_0" ID="u_4:o_0"></TD></TR></TABLE>>];
u_6[shape="plaintext",color="black",label=<<TABLE BORDER="0" CELLBORDER="1"><TR><TD>Pan2</TD><TD PORT="i_0" ID="u_6:i_0"></TD><TD ID="u_6:K_1">0</TD><TD ID="u_6:K_2">1</TD></TR><TR><TD BORDER="0"></TD><TD BORDER="0"></TD><TD PORT="o_0" ID="u_6:o_0"></TD><TD PORT="o_1" ID="u_6:o_1"></TD></TR></TABLE>>];
u_9[shape="plaintext",color="black",label=<<TABLE BORDER="0" CELLBORDER="1"><TR><TD>Out</TD><TD ID="u_9:K_0">0</TD><TD PORT="i_1" ID="u_9:i_1"></TD><TD PORT="i_2" ID="u_9:i_2"></TD></TR></TABLE>>];
u_2:o_0 -> u_4:i_0;
u_4:o_0 -> u_6:i_0;
u_6:o_0 -> u_9:i_1;
u_6:o_1 -> u_9:i_2;
}
